%YAML 1.1
%TAG !u! tag:unity3d.com,2011:
--- !u!114 &11400000
MonoBehaviour:
  m_ObjectHideFlags: 0
  m_CorrespondingSourceObject: {fileID: 0}
  m_PrefabInstance: {fileID: 0}
  m_PrefabAsset: {fileID: 0}
  m_GameObject: {fileID: 0}
  m_Enabled: 1
  m_EditorHideFlags: 0
  m_Script: {fileID: 11500000, guid: 5e4859114bb801f429751382acdc7d60, type: 3}
  m_Name: Start
  m_EditorClassIdentifier: 
  buttonPrefab: {fileID: 3773148391025967281, guid: c35f977366f87504ab288c82e2f3d0de, type: 3}
